P3_Division/src/build/divisor.vcd
$date
	Wed Jun 10 21:52:33 2026
$end
$version
	Icarus Verilog
$end
$timescale
	1ps
$end
$scope module top_tb $end
$var wire 4 ! residuo [3:0] $end
$var wire 1 " done $end
$var wire 6 # cociente [5:0] $end
$var reg 1 $ clk $end
$var reg 6 % dividendo [5:0] $end
$var reg 4 & divisor [3:0] $end
$var reg 1 ' rst $end
$var reg 1 ( valid $end
$scope module dut $end
$var wire 1 $ clk $end
$var wire 6 ) dividendo [5:0] $end
$var wire 4 * divisor [3:0] $end
$var wire 1 ' rst $end
$var wire 1 ( valid $end
$var reg 6 + A_reg [5:0] $end
$var reg 4 , B_reg [3:0] $end
$var reg 5 - D_temp [4:0] $end
$var reg 6 . Q_reg [5:0] $end
$var reg 5 / R_reg [4:0] $end
$var reg 5 0 R_shift [4:0] $end
$var reg 6 1 cociente [5:0] $end
$var reg 1 " done $end
$var reg 3 2 i_reg [2:0] $end
$var reg 4 3 residuo [3:0] $end
$var reg 2 4 state_reg [1:0] $end
$upscope $end
$scope task probar_division $end
$var reg 6 5 A [5:0] $end
$var reg 4 6 B [3:0] $end
$var reg 6 7 Q_esperado [5:0] $end
$var reg 4 8 R_esperado [3:0] $end
$upscope $end
$upscope $end
$enddefinitions $end
$comment Show the parameter values. $end
$dumpall
$end
#0
$dumpvars
bx 8
bx 7
bx 6
bx 5
b0 4
b0 3
b0 2
b0 1
b0 0
b0 /
b0 .
b0 -
b0 ,
b0 +
b0 *
b0 )
0(
1'
b0 &
b0 %
0$
b0 #
0"
b0 !
$end
#10000
1$
#20000
0$
#30000
1$
#40000
0$
#50000
b10010 -
b1 0
b1 4
b101 2
b1111 ,
b111111 +
1(
1$
b1111 &
b1111 *
b111111 %
b111111 )
b11 8
b100 7
b1111 6
b111111 5
0'
#60000
0$
#70000
b10100 -
b11 0
b100 2
b1 /
0(
1$
#80000
0$
#90000
b11000 -
b111 0
b11 2
b11 /
1$
#100000
0$
#110000
b0 -
b1111 0
b10 2
b111 /
1$
#120000
0$
#130000
b10010 -
b1 0
b1 2
b0 /
b100 .
1$
#140000
0$
#150000
b10100 -
b11 0
b0 2
b1 /
1$
#160000
0$
#170000
b11000 -
b111 0
b10 4
b11 /
1$
#180000
0$
#190000
b0 4
1"
b11 !
b11 3
b100 #
b100 1
1$
#200000
0$
#210000
0"
1$
#220000
0$
#230000
b10 &
b10 *
b1101 %
b1101 )
b1 8
b110 7
b10 6
b1101 5
1$
#240000
0$
#250000
b11110 -
b0 0
b1 4
b101 2
b0 /
b0 .
b10 ,
b1101 +
1(
1$
#260000
0$
#270000
b100 2
0(
1$
#280000
0$
#290000
b11111 -
b1 0
b11 2
1$
#300000
0$
#310000
b1 -
b11 0
b10 2
b1 /
1$
#320000
0$
#330000
b0 -
b10 0
b1 2
b100 .
1$
#340000
0$
#350000
b11111 -
b1 0
b0 2
b0 /
b110 .
1$
#360000
0$
#370000
b1 -
b11 0
b10 4
b1 /
1$
#380000
0$
#390000
b0 4
1"
b1 !
b1 3
b110 #
b110 1
1$
#400000
0$
#410000
0"
1$
#420000
0$
#430000
b101 &
b101 *
b1010 %
b1010 )
b0 8
b10 7
b101 6
b1010 5
1$
#440000
0$
#450000
b11011 -
b0 0
b1 4
b101 2
b0 /
b0 .
b101 ,
b1010 +
1(
1$
#460000
0$
#470000
b100 2
0(
1$
#480000
0$
#490000
b11100 -
b1 0
b11 2
1$
#500000
0$
#510000
b11101 -
b10 0
b10 2
b1 /
1$
#520000
0$
#530000
b0 -
b101 0
b1 2
b10 /
1$
#540000
0$
#550000
b11011 -
b0 0
b0 2
b0 /
b10 .
1$
#560000
0$
#570000
b10 4
1$
#580000
0$
#590000
b0 4
1"
b0 !
b0 3
b10 #
b10 1
1$
#600000
0$
#610000
0"
1$
#620000
0$
#630000
b100 &
b100 *
b11111 %
b11111 )
b11 8
b111 7
b100 6
b11111 5
1$
#640000
0$
#650000
b11100 -
b1 4
b101 2
b0 .
b100 ,
b11111 +
1(
1$
#660000
0$
#670000
b11101 -
b1 0
b100 2
0(
1$
#680000
0$
#690000
b11111 -
b11 0
b11 2
b1 /
1$
#700000
0$
#710000
b11 -
b111 0
b10 2
b11 /
1$
#720000
0$
#730000
b1 2
b100 .
1$
#740000
0$
#750000
b0 2
b110 .
1$
#760000
0$
#770000
b10 4
b111 .
1$
#780000
0$
#790000
b0 4
1"
b11 !
b11 3
b111 #
b111 1
1$
#800000
0$
#810000
0"
1$
#820000
0$
#830000
b111 &
b111 *
b111 %
b111 )
b0 8
b1 7
b111 6
b111 5
1$
#840000
0$
#850000
b11001 -
b0 0
b1 4
b101 2
b0 /
b0 .
b111 ,
b111 +
1(
1$
#860000
0$
#870000
b100 2
0(
1$
#880000
0$
#890000
b11 2
1$
#900000
0$
#910000
b11010 -
b1 0
b10 2
1$
#920000
0$
#930000
b11100 -
b11 0
b1 2
b1 /
1$
#940000
0$
#950000
b0 -
b111 0
b0 2
b11 /
1$
#960000
0$
#970000
b11010 -
b1 0
b10 4
b0 /
b1 .
1$
#980000
0$
#990000
b0 4
1"
b0 !
b0 3
b1 #
b1 1
1$
#1000000
0$
#1010000
0"
1$
#1020000
0$
#1030000
b1001 &
b1001 *
b101 %
b101 )
b101 8
b0 7
b1001 6
b101 5
1$
#1040000
0$
#1050000
b10111 -
b0 0
b1 4
b101 2
b0 .
b1001 ,
b101 +
1(
1$
#1060000
0$
#1070000
b100 2
0(
1$
#1080000
0$
#1090000
b11 2
1$
#1100000
0$
#1110000
b11000 -
b1 0
b10 2
1$
#1120000
0$
#1130000
b11001 -
b10 0
b1 2
b1 /
1$
#1140000
0$
#1150000
b11100 -
b101 0
b0 2
b10 /
1$
#1160000
0$
#1170000
b10 -
b1011 0
b10 4
b101 /
1$
#1180000
0$
#1190000
b0 4
1"
b101 !
b101 3
b0 #
b0 1
1$
#1200000
0$
#1210000
0"
1$
