P3_Division/src/build/Proyecto3_Division.vcd
$date
	Thu Jun 11 08:37:22 2026
$end
$version
	Icarus Verilog
$end
$timescale
	1ps
$end
$scope module top_tb $end
$var wire 1 ! done $end
$var wire 5 " R [4:0] $end
$var wire 7 # Q [6:0] $end
$var reg 7 $ A [6:0] $end
$var reg 5 % B [4:0] $end
$var reg 1 & clk $end
$var reg 1 ' rst $end
$var reg 1 ( valid $end
$scope module uut $end
$var wire 7 ) A [6:0] $end
$var wire 5 * B [4:0] $end
$var wire 1 & clk $end
$var wire 1 ' rst $end
$var wire 1 ( valid $end
$var wire 7 + sub_result [6:0] $end
$var wire 13 , shifted_RQ [12:0] $end
$var reg 7 - Q [6:0] $end
$var reg 5 . R [4:0] $end
$var reg 13 / RQ [12:0] $end
$var reg 3 0 count [2:0] $end
$var reg 5 1 divisor_reg [4:0] $end
$var reg 1 ! done $end
$var reg 2 2 state [1:0] $end
$upscope $end
$upscope $end
$enddefinitions $end
$comment Show the parameter values. $end
$dumpall
$end
#0
$dumpvars
b0 2
b0 1
b0 0
b0 /
b0 .
b0 -
b0 ,
b0 +
b0 *
b0 )
0(
1'
0&
b0 %
b0 $
b0 #
b0 "
0!
$end
#18500
1&
#37000
0&
#50000
0'
#55500
1&
#74000
0&
#92500
1&
#100000
1(
b1100 %
b1100 *
b101 $
b101 )
#111000
0&
#129500
b1010 ,
b1 2
b111 0
b1110100 +
b1100 1
b101 /
1&
#137000
0(
#148000
0&
#166500
b10100 ,
b110 0
b1010 /
1&
#185000
0&
#203500
b101000 ,
b101 0
b10100 /
1&
#222000
0&
#240500
b1010000 ,
b100 0
b101000 /
1&
#259000
0&
#277500
b1110101 +
b10100000 ,
b11 0
b1010000 /
1&
#296000
0&
#314500
b1110110 +
b101000000 ,
b10 0
b10100000 /
1&
#333000
0&
#351500
b1111001 +
b1010000000 ,
b1 0
b101000000 /
1&
#370000
0&
#388500
b1111110 +
b10100000000 ,
b0 0
b1010000000 /
1&
#407000
0&
#425500
b10 2
1!
b101 "
b101 .
1&
#444000
0&
#462500
b0 2
0!
1&
#481000
0&
#499500
1&
#518000
0&
#525500
1(
b1010 %
b1010 *
b1100100 $
b1100100 )
#536500
b11001000 ,
b1 2
b111 0
b1110111 +
b1010 1
b1100100 /
1&
#555000
0&
#562500
0(
#573500
b1111001 +
b110010000 ,
b110 0
b11001000 /
1&
#592000
0&
#610500
b1111100 +
b1100100000 ,
b101 0
b110010000 /
1&
#629000
0&
#647500
b10 +
b11001000000 ,
b100 0
b1100100000 /
1&
#666000
0&
#684500
b1111011 +
b1010000010 ,
b11 0
b101000001 /
1&
#703000
0&
#721500
b0 +
b10100000100 ,
b10 0
b1010000010 /
1&
#740000
0&
#758500
b1110110 +
b1010 ,
b1 0
b101 /
1&
#777000
0&
#795500
b10100 ,
b0 0
b1010 /
1&
#814000
0&
#832500
b10 2
1!
b0 "
b0 .
b1010 #
b1010 -
1&
#851000
0&
#869500
b0 2
0!
1&
#888000
0&
#906500
1&
#925000
0&
#932500
1(
b11100 %
b11100 *
b1011001 $
b1011001 )
#943500
b10110010 ,
b1 2
b111 0
b1100101 +
b11100 1
b1011001 /
1&
#962000
0&
#969500
0(
#980500
b1100110 +
b101100100 ,
b110 0
b10110010 /
1&
#999000
0&
#1017500
b1101001 +
b1011001000 ,
b101 0
b101100100 /
1&
#1036000
0&
#1054500
b1101111 +
b10110010000 ,
b100 0
b1011001000 /
1&
#1073000
0&
#1091500
b1111010 +
b101100100000 ,
b11 0
b10110010000 /
1&
#1110000
0&
#1128500
b10000 +
b1011001000000 ,
b10 0
b101100100000 /
1&
#1147000
0&
#1165500
b101 +
b1000010000010 ,
b1 0
b100001000001 /
1&
#1184000
0&
#1202500
b1101110 +
b10100000110 ,
b0 0
b1010000011 /
1&
#1221000
0&
#1239500
b10 2
1!
b101 "
b101 .
b11 #
b11 -
1&
#1258000
0&
#1276500
b0 2
0!
1&
#1295000
0&
#1313500
1&
#1332000
0&
#1339500
1(
b11111 %
b11111 *
b1111111 $
b1111111 )
#1350500
b11111110 ,
b1 2
b111 0
b1100010 +
b11111 1
b1111111 /
1&
#1369000
0&
#1376500
0(
#1387500
b1100100 +
b111111100 ,
b110 0
b11111110 /
1&
#1406000
0&
#1424500
b1101000 +
b1111111000 ,
b101 0
b111111100 /
1&
#1443000
0&
#1461500
b1110000 +
b11111110000 ,
b100 0
b1111111000 /
1&
#1480000
0&
#1498500
b0 +
b111111100000 ,
b11 0
b11111110000 /
1&
#1517000
0&
#1535500
b1100010 +
b11000010 ,
b10 0
b1100001 /
1&
#1554000
0&
#1572500
b1100100 +
b110000100 ,
b1 0
b11000010 /
1&
#1591000
0&
#1609500
b1100111 +
b1100001000 ,
b0 0
b110000100 /
1&
#1628000
0&
#1646500
b10 2
1!
b11 "
b11 .
b100 #
b100 -
1&
#1665000
0&
#1683500
b0 2
0!
1&
